---
http_interactions:
- request:
    method: get
    uri: https://api.pexels.com/v1/search?per_page=1&query=denver,co
    body:
      encoding: US-ASCII
      string: ''
    headers:
      Authorization:
      - PEXELS_API
      User-Agent:
      - Faraday v1.1.0
      Accept-Encoding:
      - gzip;q=1.0,deflate;q=0.6,identity;q=0.3
      Accept:
      - "*/*"
  response:
    status:
      code: 200
      message: OK
    headers:
      Date:
      - Wed, 11 Nov 2020 02:38:57 GMT
      Content-Type:
      - application/json; charset=utf-8
      Content-Length:
      - '421'
      Connection:
      - keep-alive
      Set-Cookie:
      - __cfduid=da4bf4cc6f7bb6cba64aeb47799ec20321605062337; expires=Fri, 11-Dec-20
        02:38:57 GMT; path=/; domain=.pexels.com; HttpOnly; SameSite=Lax
      - __cfduid=deaa193b445dd17b1b6adc09d30c715b01604988742; expires=Thu, 10-Dec-20
        06:12:22 GMT; path=/; domain=.pexels.com; HttpOnly; SameSite=Lax
      Cache-Control:
      - max-age=0, private, must-revalidate
      Cf-Cache-Status:
      - DYNAMIC
      Cf-Request-Id:
      - 0656c4bc0200002fea41a5c000000001
      Expect-Ct:
      - max-age=604800, report-uri="https://report-uri.cloudflare.com/cdn-cgi/beacon/expect-ct"
      Vary:
      - Origin
      X-Frame-Options:
      - ALLOWALL
      X-Ratelimit-Limit:
      - '20000'
      X-Ratelimit-Remaining:
      - '19897'
      X-Ratelimit-Reset:
      - '1607406890'
      X-Request-Id:
      - 7557842b-7f98-4374-b4e6-6f6c0e732b2c
      X-Runtime:
      - '0.145977'
      X-Server:
      - master
      X-Tyk-Cached-Response:
      - '1'
      Server:
      - cloudflare
      Cf-Ray:
      - 5f04a3d99a242fea-ORD
    body:
      encoding: ASCII-8BIT
      string: '{"page":1,"per_page":1,"photos":[{"id":3184423,"width":4004,"height":6000,"url":"https://www.pexels.com/photo/photo-of-people-holding-each-other-s-hands-3184423/","photographer":"fauxels","photographer_url":"https://www.pexels.com/@fauxels","photographer_id":1281351,"src":{"original":"https://images.pexels.com/photos/3184423/pexels-photo-3184423.jpeg","large2x":"https://images.pexels.com/photos/3184423/pexels-photo-3184423.jpeg?auto=compress\u0026cs=tinysrgb\u0026dpr=2\u0026h=650\u0026w=940","large":"https://images.pexels.com/photos/3184423/pexels-photo-3184423.jpeg?auto=compress\u0026cs=tinysrgb\u0026h=650\u0026w=940","medium":"https://images.pexels.com/photos/3184423/pexels-photo-3184423.jpeg?auto=compress\u0026cs=tinysrgb\u0026h=350","small":"https://images.pexels.com/photos/3184423/pexels-photo-3184423.jpeg?auto=compress\u0026cs=tinysrgb\u0026h=130","portrait":"https://images.pexels.com/photos/3184423/pexels-photo-3184423.jpeg?auto=compress\u0026cs=tinysrgb\u0026fit=crop\u0026h=1200\u0026w=800","landscape":"https://images.pexels.com/photos/3184423/pexels-photo-3184423.jpeg?auto=compress\u0026cs=tinysrgb\u0026fit=crop\u0026h=627\u0026w=1200","tiny":"https://images.pexels.com/photos/3184423/pexels-photo-3184423.jpeg?auto=compress\u0026cs=tinysrgb\u0026dpr=1\u0026fit=crop\u0026h=200\u0026w=280"},"liked":false}],"total_results":467,"next_page":"https://api.pexels.com/v1/search/?page=2\u0026per_page=1\u0026query=denver%2Cco"}'
  recorded_at: Wed, 11 Nov 2020 02:38:57 GMT
recorded_with: VCR 6.0.0
