---
http_interactions:
- request:
    method: get
    uri: https://api.pexels.com/v1/search?per_page=1&query=denver,co
    body:
      encoding: US-ASCII
      string: ''
    headers:
      Authorization:
      - PEXELS_API
      User-Agent:
      - Faraday v1.1.0
      Accept-Encoding:
      - gzip;q=1.0,deflate;q=0.6,identity;q=0.3
      Accept:
      - "*/*"
  response:
    status:
      code: 200
      message: OK
    headers:
      Date:
      - Fri, 27 Nov 2020 20:01:29 GMT
      Content-Type:
      - application/json; charset=utf-8
      Content-Length:
      - '421'
      Connection:
      - keep-alive
      Set-Cookie:
      - __cf_bm=0e231c052388a3ec601beb6b59251f24f312c699-1606507289-1800-ASBGptsNCmhr0DxOlc20hA2x4FAyjtCDEGfZ3ctux8L/1KjRTaSxfk3s+Xeh/wG5kK2ZA+YdffDFB+7a4r92CVY=;
        path=/; expires=Fri, 27-Nov-20 20:31:29 GMT; domain=.pexels.com; HttpOnly;
        Secure; SameSite=None
      - __cf_bm=12472987f361a99e1cbb586eebbc3ed1086fc266-1606507285-1800-Acc0eatLGA8RQPSJQfTS2Z2ntiML+sn6o/lvgwjWbLf63X7LNUUP4VvE2FMmyoQeCTfLHLpuL5OBVJNIWd2cs84=;
        path=/; expires=Fri, 27-Nov-20 20:31:25 GMT; domain=.pexels.com; HttpOnly;
        Secure; SameSite=None
      - __cfduid=db1d20855f197dc0fcd109506e1e883281606507285; expires=Sun, 27-Dec-20
        20:01:25 GMT; path=/; domain=.pexels.com; HttpOnly; SameSite=Lax
      - __cfduid=dc1f649cad86f6a874e5a8608553942111606507289; expires=Sun, 27-Dec-20
        20:01:29 GMT; path=/; domain=.pexels.com; HttpOnly; SameSite=Lax
      Cache-Control:
      - max-age=0, private, must-revalidate
      Cf-Cache-Status:
      - DYNAMIC
      Cf-Request-Id:
      - 06ace4f29e000030164d26b000000001
      Expect-Ct:
      - max-age=604800, report-uri="https://report-uri.cloudflare.com/cdn-cgi/beacon/expect-ct"
      Vary:
      - Origin
      X-Frame-Options:
      - ALLOWALL
      X-Ratelimit-Limit:
      - '20000'
      X-Ratelimit-Remaining:
      - '19883'
      X-Ratelimit-Reset:
      - '1607406890'
      X-Request-Id:
      - 40cad1d2-295f-4974-a74d-9a4320c47548
      X-Runtime:
      - '0.063724'
      X-Server:
      - master
      X-Tyk-Cached-Response:
      - '1'
      Server:
      - cloudflare
      Cf-Ray:
      - 5f8e70fdc8733016-ORD
    body:
      encoding: ASCII-8BIT
      string: '{"page":1,"per_page":1,"photos":[{"id":3184423,"width":4004,"height":6000,"url":"https://www.pexels.com/photo/photo-of-people-holding-each-other-s-hands-3184423/","photographer":"fauxels","photographer_url":"https://www.pexels.com/@fauxels","photographer_id":1281351,"src":{"original":"https://images.pexels.com/photos/3184423/pexels-photo-3184423.jpeg","large2x":"https://images.pexels.com/photos/3184423/pexels-photo-3184423.jpeg?auto=compress\u0026cs=tinysrgb\u0026dpr=2\u0026h=650\u0026w=940","large":"https://images.pexels.com/photos/3184423/pexels-photo-3184423.jpeg?auto=compress\u0026cs=tinysrgb\u0026h=650\u0026w=940","medium":"https://images.pexels.com/photos/3184423/pexels-photo-3184423.jpeg?auto=compress\u0026cs=tinysrgb\u0026h=350","small":"https://images.pexels.com/photos/3184423/pexels-photo-3184423.jpeg?auto=compress\u0026cs=tinysrgb\u0026h=130","portrait":"https://images.pexels.com/photos/3184423/pexels-photo-3184423.jpeg?auto=compress\u0026cs=tinysrgb\u0026fit=crop\u0026h=1200\u0026w=800","landscape":"https://images.pexels.com/photos/3184423/pexels-photo-3184423.jpeg?auto=compress\u0026cs=tinysrgb\u0026fit=crop\u0026h=627\u0026w=1200","tiny":"https://images.pexels.com/photos/3184423/pexels-photo-3184423.jpeg?auto=compress\u0026cs=tinysrgb\u0026dpr=1\u0026fit=crop\u0026h=200\u0026w=280"},"liked":false}],"total_results":721,"next_page":"https://api.pexels.com/v1/search/?page=2\u0026per_page=1\u0026query=denver%2Cco"}'
  recorded_at: Fri, 27 Nov 2020 20:01:29 GMT
recorded_with: VCR 6.0.0
